Version 4
SHEET 1 880 680
WIRE 96 32 -32 32
WIRE 160 32 96 32
WIRE -32 64 -32 32
WIRE -32 176 -32 144
FLAG -32 176 0
FLAG 96 32 Net-_J1-Pin_2_
SYMBOL voltage -32 48 R0
WINDOW 123 24 124 Left 2
WINDOW 39 0 0 Left 0
SYMATTR Value2 AC 1
SYMATTR InstName V1
SYMATTR Value PULSE(0 5 1u 1n 1n 500n 30u 1)
TEXT -328 56 Left 2 !.include LC-txline.cir
TEXT 328 64 Left 2 !.ac dec 200 1k 10e6\n.param RT=220k\n$.step param RT LIST 2 110 220 440 2200 22000
