Designator,Val,Package,Mid X,Mid Y,Rotation,Layer
C1,Cx,C_0603_1608Metric,60.0,-81.2275,-90.0,top
C10,Cx,C_0603_1608Metric,94.29,-81.2275,-90.0,top
C100,Cx,C_0603_1608Metric,132.39,-121.8675,-90.0,top
C11,Cx,C_0603_1608Metric,98.1,-81.2275,-90.0,top
C12,Cx,C_0603_1608Metric,101.91,-81.2275,-90.0,top
C13,Cx,C_0603_1608Metric,105.72,-81.2275,-90.0,top
C14,Cx,C_0603_1608Metric,109.53,-81.2275,-90.0,top
C15,Cx,C_0603_1608Metric,113.34,-81.2275,-90.0,top
C16,Cx,C_0603_1608Metric,117.15,-81.2275,-90.0,top
C17,Cx,C_0603_1608Metric,120.96,-81.2275,-90.0,top
C18,Cx,C_0603_1608Metric,124.77,-81.2275,-90.0,top
C19,Cx,C_0603_1608Metric,128.58,-81.2275,-90.0,top
C2,Cx,C_0603_1608Metric,63.81,-81.2275,-90.0,top
C20,Cx,C_0603_1608Metric,132.39,-81.2275,-90.0,top
C21,Cx,C_0603_1608Metric,60.0,-91.3875,-90.0,top
C22,Cx,C_0603_1608Metric,63.81,-91.3875,-90.0,top
C23,Cx,C_0603_1608Metric,67.62,-91.3875,-90.0,top
C24,Cx,C_0603_1608Metric,71.43,-91.3875,-90.0,top
C25,Cx,C_0603_1608Metric,75.24,-91.3875,-90.0,top
C26,Cx,C_0603_1608Metric,79.05,-91.3875,-90.0,top
C27,Cx,C_0603_1608Metric,82.86,-91.3875,-90.0,top
C28,Cx,C_0603_1608Metric,86.67,-91.3875,-90.0,top
C29,Cx,C_0603_1608Metric,90.48,-91.3875,-90.0,top
C3,Cx,C_0603_1608Metric,67.62,-81.2275,-90.0,top
C30,Cx,C_0603_1608Metric,94.29,-91.3875,-90.0,top
C31,Cx,C_0603_1608Metric,98.1,-91.3875,-90.0,top
C32,Cx,C_0603_1608Metric,101.91,-91.3875,-90.0,top
C33,Cx,C_0603_1608Metric,105.72,-91.3875,-90.0,top
C34,Cx,C_0603_1608Metric,109.53,-91.3875,-90.0,top
C35,Cx,C_0603_1608Metric,113.34,-91.3875,-90.0,top
C36,Cx,C_0603_1608Metric,117.15,-91.3875,-90.0,top
C37,Cx,C_0603_1608Metric,120.96,-91.3875,-90.0,top
C38,Cx,C_0603_1608Metric,124.77,-91.3875,-90.0,top
C39,Cx,C_0603_1608Metric,128.58,-91.3875,-90.0,top
C4,Cx,C_0603_1608Metric,71.43,-81.2275,-90.0,top
C40,Cx,C_0603_1608Metric,132.39,-91.3875,-90.0,top
C41,Cx,C_0603_1608Metric,60.0,-101.5475,-90.0,top
C42,Cx,C_0603_1608Metric,63.81,-101.5475,-90.0,top
C43,Cx,C_0603_1608Metric,67.62,-101.5475,-90.0,top
C44,Cx,C_0603_1608Metric,71.43,-101.5475,-90.0,top
C45,Cx,C_0603_1608Metric,75.24,-101.5475,-90.0,top
C46,Cx,C_0603_1608Metric,79.05,-101.5475,-90.0,top
C47,Cx,C_0603_1608Metric,82.86,-101.5475,-90.0,top
C48,Cx,C_0603_1608Metric,86.67,-101.5475,-90.0,top
C49,Cx,C_0603_1608Metric,90.48,-101.5475,-90.0,top
C5,Cx,C_0603_1608Metric,75.24,-81.2275,-90.0,top
C50,Cx,C_0603_1608Metric,94.29,-101.5475,-90.0,top
C51,Cx,C_0603_1608Metric,98.1,-101.5475,-90.0,top
C52,Cx,C_0603_1608Metric,101.91,-101.5475,-90.0,top
C53,Cx,C_0603_1608Metric,105.72,-101.5475,-90.0,top
C54,Cx,C_0603_1608Metric,109.53,-101.5475,-90.0,top
C55,Cx,C_0603_1608Metric,113.34,-101.5475,-90.0,top
C56,Cx,C_0603_1608Metric,117.15,-101.5475,-90.0,top
C57,Cx,C_0603_1608Metric,120.96,-101.5475,-90.0,top
C58,Cx,C_0603_1608Metric,124.77,-101.5475,-90.0,top
C59,Cx,C_0603_1608Metric,128.58,-101.5475,-90.0,top
C6,Cx,C_0603_1608Metric,79.05,-81.2275,-90.0,top
C60,Cx,C_0603_1608Metric,132.39,-101.5475,-90.0,top
C61,Cx,C_0603_1608Metric,60.0,-111.7075,-90.0,top
C62,Cx,C_0603_1608Metric,63.81,-111.7075,-90.0,top
C63,Cx,C_0603_1608Metric,67.62,-111.7075,-90.0,top
C64,Cx,C_0603_1608Metric,71.43,-111.7075,-90.0,top
C65,Cx,C_0603_1608Metric,75.24,-111.7075,-90.0,top
C66,Cx,C_0603_1608Metric,79.05,-111.7075,-90.0,top
C67,Cx,C_0603_1608Metric,82.86,-111.7075,-90.0,top
C68,Cx,C_0603_1608Metric,86.67,-111.7075,-90.0,top
C69,Cx,C_0603_1608Metric,90.48,-111.7075,-90.0,top
C7,Cx,C_0603_1608Metric,82.86,-81.2275,-90.0,top
C70,Cx,C_0603_1608Metric,94.29,-111.7075,-90.0,top
C71,Cx,C_0603_1608Metric,98.1,-111.7075,-90.0,top
C72,Cx,C_0603_1608Metric,101.91,-111.7075,-90.0,top
C73,Cx,C_0603_1608Metric,105.72,-111.7075,-90.0,top
C74,Cx,C_0603_1608Metric,109.53,-111.7075,-90.0,top
C75,Cx,C_0603_1608Metric,113.34,-111.7075,-90.0,top
C76,Cx,C_0603_1608Metric,117.15,-111.7075,-90.0,top
C77,Cx,C_0603_1608Metric,120.96,-111.7075,-90.0,top
C78,Cx,C_0603_1608Metric,124.77,-111.7075,-90.0,top
C79,Cx,C_0603_1608Metric,128.58,-111.7075,-90.0,top
C8,Cx,C_0603_1608Metric,86.67,-81.2275,-90.0,top
C80,Cx,C_0603_1608Metric,132.39,-111.7075,-90.0,top
C81,Cx,C_0603_1608Metric,60.0,-121.8675,-90.0,top
C82,Cx,C_0603_1608Metric,63.81,-121.8675,-90.0,top
C83,Cx,C_0603_1608Metric,67.62,-121.8675,-90.0,top
C84,Cx,C_0603_1608Metric,71.43,-121.8675,-90.0,top
C85,Cx,C_0603_1608Metric,75.24,-121.8675,-90.0,top
C86,Cx,C_0603_1608Metric,79.05,-121.8675,-90.0,top
C87,Cx,C_0603_1608Metric,82.86,-121.8675,-90.0,top
C88,Cx,C_0603_1608Metric,86.67,-121.8675,-90.0,top
C89,Cx,C_0603_1608Metric,90.48,-121.8675,-90.0,top
C9,Cx,C_0603_1608Metric,90.48,-81.2275,-90.0,top
C90,Cx,C_0603_1608Metric,94.29,-121.8675,-90.0,top
C91,Cx,C_0603_1608Metric,98.1,-121.8675,-90.0,top
C92,Cx,C_0603_1608Metric,101.91,-121.8675,-90.0,top
C93,Cx,C_0603_1608Metric,105.72,-121.8675,-90.0,top
C94,Cx,C_0603_1608Metric,109.53,-121.8675,-90.0,top
C95,Cx,C_0603_1608Metric,113.34,-121.8675,-90.0,top
C96,Cx,C_0603_1608Metric,117.15,-121.8675,-90.0,top
C97,Cx,C_0603_1608Metric,120.96,-121.8675,-90.0,top
C98,Cx,C_0603_1608Metric,124.77,-121.8675,-90.0,top
C99,Cx,C_0603_1608Metric,128.58,-121.8675,-90.0,top
J1,Conn_01x02,PinHeader_1x02_P2.54mm_Vertical,75.24,-67.2575,270.0,top
J2,Conn_01x02,PinHeader_1x02_P2.54mm_Vertical,138.74,-67.2575,270.0,top
J3,Conn_02x07_Odd_Even,PinHeader_2x07_P2.54mm_Vertical,98.1,-67.2575,180.0,top
J4,Conn_02x03_Odd_Even,PinHeader_2x03_P2.54mm_Vertical,129.85,-129.4875,0.0,top
JP1,Jumper_2_Open,PinHeader_1x02_P2.54mm_Vertical,61.27,-64.7175,0.0,top
L1,Lx,R_0603_1608Metric,58.095,-78.6875,0.0,top
L10,Lx,R_0603_1608Metric,92.385,-78.6875,0.0,top
L100,Lx,R_0603_1608Metric,130.485,-119.3275,0.0,top
L11,Lx,R_0603_1608Metric,96.195,-78.6875,0.0,top
L12,Lx,R_0603_1608Metric,100.005,-78.6875,0.0,top
L13,Lx,R_0603_1608Metric,103.815,-78.6875,0.0,top
L14,Lx,R_0603_1608Metric,107.625,-78.6875,0.0,top
L15,Lx,R_0603_1608Metric,111.435,-78.6875,0.0,top
L16,Lx,R_0603_1608Metric,115.245,-78.6875,0.0,top
L17,Lx,R_0603_1608Metric,119.055,-78.6875,0.0,top
L18,Lx,R_0603_1608Metric,122.865,-78.6875,0.0,top
L19,Lx,R_0603_1608Metric,126.675,-78.6875,0.0,top
L2,Lx,R_0603_1608Metric,61.905,-78.6875,0.0,top
L20,Lx,R_0603_1608Metric,130.485,-78.6875,0.0,top
L21,Lx,R_0603_1608Metric,58.095,-88.8475,0.0,top
L22,Lx,R_0603_1608Metric,61.905,-88.8475,0.0,top
L23,Lx,R_0603_1608Metric,65.715,-88.8475,0.0,top
L24,Lx,R_0603_1608Metric,69.525,-88.8475,0.0,top
L25,Lx,R_0603_1608Metric,73.335,-88.8475,0.0,top
L26,Lx,R_0603_1608Metric,77.145,-88.8475,0.0,top
L27,Lx,R_0603_1608Metric,80.955,-88.8475,0.0,top
L28,Lx,R_0603_1608Metric,84.765,-88.8475,0.0,top
L29,Lx,R_0603_1608Metric,88.575,-88.8475,0.0,top
L3,Lx,R_0603_1608Metric,65.715,-78.6875,0.0,top
L30,Lx,R_0603_1608Metric,92.385,-88.8475,0.0,top
L31,Lx,R_0603_1608Metric,96.195,-88.8475,0.0,top
L32,Lx,R_0603_1608Metric,100.005,-88.8475,0.0,top
L33,Lx,R_0603_1608Metric,103.815,-88.8475,0.0,top
L34,Lx,R_0603_1608Metric,107.625,-88.8475,0.0,top
L35,Lx,R_0603_1608Metric,111.435,-88.8475,0.0,top
L36,Lx,R_0603_1608Metric,115.245,-88.8475,0.0,top
L37,Lx,R_0603_1608Metric,119.055,-88.8475,0.0,top
L38,Lx,R_0603_1608Metric,122.865,-88.8475,0.0,top
L39,Lx,R_0603_1608Metric,126.675,-88.8475,0.0,top
L4,Lx,R_0603_1608Metric,69.525,-78.6875,0.0,top
L40,Lx,R_0603_1608Metric,130.485,-88.8475,0.0,top
L41,Lx,R_0603_1608Metric,58.095,-99.0075,0.0,top
L42,Lx,R_0603_1608Metric,61.905,-99.0075,0.0,top
L43,Lx,R_0603_1608Metric,65.715,-99.0075,0.0,top
L44,Lx,R_0603_1608Metric,69.525,-99.0075,0.0,top
L45,Lx,R_0603_1608Metric,73.335,-99.0075,0.0,top
L46,Lx,R_0603_1608Metric,77.145,-99.0075,0.0,top
L47,Lx,R_0603_1608Metric,80.955,-99.0075,0.0,top
L48,Lx,R_0603_1608Metric,84.765,-99.0075,0.0,top
L49,Lx,R_0603_1608Metric,88.575,-99.0075,0.0,top
L5,Lx,R_0603_1608Metric,73.335,-78.6875,0.0,top
L50,Lx,R_0603_1608Metric,92.385,-99.0075,0.0,top
L51,Lx,R_0603_1608Metric,96.195,-99.0075,0.0,top
L52,Lx,R_0603_1608Metric,100.005,-99.0075,0.0,top
L53,Lx,R_0603_1608Metric,103.815,-99.0075,0.0,top
L54,Lx,R_0603_1608Metric,107.625,-99.0075,0.0,top
L55,Lx,R_0603_1608Metric,111.435,-99.0075,0.0,top
L56,Lx,R_0603_1608Metric,115.245,-99.0075,0.0,top
L57,Lx,R_0603_1608Metric,119.055,-99.0075,0.0,top
L58,Lx,R_0603_1608Metric,122.865,-99.0075,0.0,top
L59,Lx,R_0603_1608Metric,126.675,-99.0075,0.0,top
L6,Lx,R_0603_1608Metric,77.145,-78.6875,0.0,top
L60,Lx,R_0603_1608Metric,130.485,-99.0075,0.0,top
L61,Lx,R_0603_1608Metric,58.095,-109.1675,0.0,top
L62,Lx,R_0603_1608Metric,61.905,-109.1675,0.0,top
L63,Lx,R_0603_1608Metric,65.715,-109.1675,0.0,top
L64,Lx,R_0603_1608Metric,69.525,-109.1675,0.0,top
L65,Lx,R_0603_1608Metric,73.335,-109.1675,0.0,top
L66,Lx,R_0603_1608Metric,77.145,-109.1675,0.0,top
L67,Lx,R_0603_1608Metric,80.955,-109.1675,0.0,top
L68,Lx,R_0603_1608Metric,84.765,-109.1675,0.0,top
L69,Lx,R_0603_1608Metric,88.575,-109.1675,0.0,top
L7,Lx,R_0603_1608Metric,80.955,-78.6875,0.0,top
L70,Lx,R_0603_1608Metric,92.385,-109.1675,0.0,top
L71,Lx,R_0603_1608Metric,96.195,-109.1675,0.0,top
L72,Lx,R_0603_1608Metric,100.005,-109.1675,0.0,top
L73,Lx,R_0603_1608Metric,103.815,-109.1675,0.0,top
L74,Lx,R_0603_1608Metric,107.625,-109.1675,0.0,top
L75,Lx,R_0603_1608Metric,111.435,-109.1675,0.0,top
L76,Lx,R_0603_1608Metric,115.245,-109.1675,0.0,top
L77,Lx,R_0603_1608Metric,119.055,-109.1675,0.0,top
L78,Lx,R_0603_1608Metric,122.865,-109.1675,0.0,top
L79,Lx,R_0603_1608Metric,126.675,-109.1675,0.0,top
L8,Lx,R_0603_1608Metric,84.765,-78.6875,0.0,top
L80,Lx,R_0603_1608Metric,130.485,-109.1675,0.0,top
L81,Lx,R_0603_1608Metric,58.095,-119.3275,0.0,top
L82,Lx,R_0603_1608Metric,61.905,-119.3275,0.0,top
L83,Lx,R_0603_1608Metric,65.715,-119.3275,0.0,top
L84,Lx,R_0603_1608Metric,69.525,-119.3275,0.0,top
L85,Lx,R_0603_1608Metric,73.335,-119.3275,0.0,top
L86,Lx,R_0603_1608Metric,77.145,-119.3275,0.0,top
L87,Lx,R_0603_1608Metric,80.955,-119.3275,0.0,top
L88,Lx,R_0603_1608Metric,84.765,-119.3275,0.0,top
L89,Lx,R_0603_1608Metric,88.575,-119.3275,0.0,top
L9,Lx,R_0603_1608Metric,88.575,-78.6875,0.0,top
L90,Lx,R_0603_1608Metric,92.385,-119.3275,0.0,top
L91,Lx,R_0603_1608Metric,96.195,-119.3275,0.0,top
L92,Lx,R_0603_1608Metric,100.005,-119.3275,0.0,top
L93,Lx,R_0603_1608Metric,103.815,-119.3275,0.0,top
L94,Lx,R_0603_1608Metric,107.625,-119.3275,0.0,top
L95,Lx,R_0603_1608Metric,111.435,-119.3275,0.0,top
L96,Lx,R_0603_1608Metric,115.245,-119.3275,0.0,top
L97,Lx,R_0603_1608Metric,119.055,-119.3275,0.0,top
L98,Lx,R_0603_1608Metric,122.865,-119.3275,0.0,top
L99,Lx,R_0603_1608Metric,126.675,-119.3275,0.0,top
R8,220,C_0603_1608Metric,61.27,-68.5575,180.0,top
R9,R,C_0603_1608Metric,142.55,-118.0575,0.0,top
